^C:\USERS\200122351\SOURCE\REPOS\LS.DEMO2\LS.DEMO2\DEBUG\MAIN.OBJ
C:\USERS\200122351\SOURCE\REPOS\LS.DEMO2\DEBUG\LS.DEMO2.EXE
C:\USERS\200122351\SOURCE\REPOS\LS.DEMO2\DEBUG\LS.DEMO2.ILK
C:\USERS\200122351\SOURCE\REPOS\LS.DEMO2\DEBUG\LS.DEMO2.PDB
